Lab 2: Modeling population dynamics • WILD3810
…
nrow(ut_dove_counts)
#> [1] 48

Because the ut_dove_counts data frame has one row per year, the nrow() function is very useful to determining how many years of BBS data we have (remember that!).

Subsetting data frames

As you will see shortly, one of the most common tasks when working with data frames is creating new objects from parts of the full data frame. This task involves subsetting the data frame - selecting specific rows and columns. There are many ways of subsetting data frames in R, too many to discuss so we will only learn about a few.

Selecting columns

First, we may want to select a subset of all of the columns in a big data frame. Data frames are essentially tables, which means we can reference both rows and columns by their number: data.frame[row#, column#]. The row and column numbers have to put inside of square brackets following the name of the data frame object. The row number always comes first and the column number second. If you want to select all rows of a specific column, you just leave the row# blank. For example, if we wanted a vector containing all of the years the BBS data was collected:

ut_dove_counts[,1]
#> # A tibble: 48 x 1
#>     Year
#>    <int>
#>  1  1968
#>  2  1969
#>  3  1970
#>  4  1971
#>  5  1972
#>  6  1973
#>  7  1974
#>  8  1975
#>  9  1976
#> 10  1977
#> # ... with 38 more rows
…
Sometimes you may want to select more than one column. The easiest way to do that is to use the select() function in the dplyr package:

library(dplyr)
#> 
#> Attaching package: 'dplyr'
#> The following objects are masked from 'package:stats':
#> 
#>     filter, lag
#> The following objects are masked from 'package:base':
#> 
#>     intersect, setdiff, setequal, union

select(.data = ut_dove_counts, Count, Year)
#> # A tibble: 48 x 2
#>    Count  Year
#>    <dbl> <int>
#>  1     0  1968
#>  2     0  1969
#>  3     0  1970
#>  4     0  1971
#>  5     0  1972
#>  6     0  1973
#>  7     0  1974
#>  8     0  1975
#>  9     0  1976
#> 10     0  1977
#> # ... with 38 more rows

Notice that select requires us to first provide the data frame object (.data = ut_dove_counts) and then we provide the column names (unquoted!) we want to select. In this case we selected both columns but changed in the order. You can also use select to remove columns:

select(.data = ut_dove_counts, -Year)
#> # A tibble: 48 x 1
#>    Count
#>    <dbl>
#>  1     0
#>  2     0
#>  3     0
#>  4     0
#>  5     0
#>  6     0
#>  7     0
#>  8     0
#>  9     0
#> 10     0
#> # ... with 38 more rows
…
